…
```r
sample_frac(flights,0.1) #returns a fraction of the rows (in this case it returns the 10% of the rows)
```

```
## # A tibble: 33,678 x 19
##     year month   day dep_time
##    <int> <int> <int>    <int>
##  1  2013    10    18     1047
##  2  2013    12     8     1646
##  3  2013    10    21     1854
##  4  2013     5     8     1400
##  5  2013     3     4     1638
##  6  2013     7     7     1049
##  7  2013     6    24     2102
##  8  2013    10     3     2010
##  9  2013    12    12     1324
## 10  2013     5    28      656
## # ... with 33,668 more rows, and 15
## #   more variables:
## #   sched_dep_time <int>,
## #   dep_delay <dbl>, arr_time <int>,
## #   sched_arr_time <int>,
## #   arr_delay <dbl>, carrier <chr>,
## #   flight <int>, tailnum <chr>,
## #   origin <chr>, dest <chr>,
## #   air_time <dbl>, distance <dbl>,
…
